Unused Code/tmr.vcd
$date
	Fri Dec 13 14:22:45 2024
$end
$version
	Icarus Verilog
$end
$timescale
	1ns
$end
$scope module TMR $end
$var reg 7 ! err_count [6:0] $end
$var integer 32 " i [31:0] $end
$var integer 32 # j [31:0] $end
$var integer 32 $ k [31:0] $end
$var integer 32 % seed [31:0] $end
$var reg 7 & tmr_err_count [6:0] $end
$var reg 1 ' x_err $end
$var reg 1 ( y_err $end
$var reg 1 ) z_err $end
$var real 1 * avg_err $end
$var real 1 + avg_tmr_err $end
$var real 1 , x $end
$var real 1 - y $end
$var real 1 . z $end
$upscope $end
$enddefinitions $end
#0
$dumpvars
r0 .
r0 -
r0 ,
r0 +
r0 *
x)
x(
x'
b0 &
bx %
b0 $
b0 #
b0 "
b0 !
$end
#25
b0 %
#38
r409 .
r449 -
r396 ,
b100100001001101010011000100 %
#41
b1 $
0)
0(
0'
#44
r605 .
r605 -
r339 ,
b11000110110111111001011100001011 %
#47
b10 $
#50
1)
r9 .
r434 -
r677 ,
b10000000111100111110000100011110 %
#53
b11 $
0)
#56
r245 .
r966 -
b10011110100011011100101111101101 %
#59
b100 $
#62
r937 .
r260 -
r277 ,
b11111100111111011110011100101000 %
#65
b101 $
#68
r474 .
r549 -
r278 ,
b1010101000100111101000000111111 %
#71
b110 $
#74
r546 .
r607 -
r533 ,
b1001001100101101010101100010 %
#77
b111 $
#80
r102 .
r634 -
r687 ,
b1100111011101101001010010000001 %
#83
b1000 $
#86
r532 .
r605 -
r520 ,
b10101110010110000100011001001100 %
#89
b1001 $
#92
r141 .
r981 -
r845 ,
b110010101001110010010100110011 %
#95
b1010 $
#98
r280 .
r938 -
r875 ,
b1000000001110110010000001100110 %
#101
b1011 $
#104
r573 .
r162 -
r184 ,
b1001110110011001100101011010101 %
#107
b1100 $
#110
r413 .
r283 -
r374 ,
b110101111000011011000110000 %
#113
b1101 $
#116
1(
r837 .
r3 -
r235 ,
b1101010101001100010100111100111 %
#119
b1110 $
0(
#122
1)
r29 .
r934 -
r490 ,
b10001110111111111110011000101010 %
#125
b1111 $
0)
#128
r418 .
r795 -
r231 ,
b10000101000010010110001011101001 %
#131
b10000 $
#134
r154 .
r260 -
r218 ,
b11111001011010001011101011010100 %
#137
b10001 $
#140
1)
r56 .
r505 -
r178 ,
b1101100010010110011001001011011 %
#143
b10010 $
0)
#146
1)
1'
r75 .
r401 -
r88 ,
b11110101110001010000101010101110 %
#149
b10011 $
0)
0'
b1 &
b1 !
#152
r734 .
r174 -
r414 ,
b11010111000101010001000010111101 %
#155
b10100 $
#158
r755 .
r842 -
r716 ,
b101110101111001100000111000 %
#161
b10101 $
#164
r623 .
r389 -
r785 ,
b10100111111100100101001010001111 %
#167
b10110 $
#170
r294 .
r242 -
r243 ,
b111111001000110011000111110010 %
#173
b10111 $
#176
1)
r9 .
r801 -
r149 ,
b11101100100111000100100001010001 %
#179
b11000 $
0)
#182
r927 .
r596 -
r882 ,
b11001111101000010101001001011100 %
#185
b11001 $
#188
r295 .
r368 -
r503 ,
b1011011110011010101111010000011 %
#191
b11010 $
#194
r771 .
r916 -
r295 ,
b101101110010111011111111110110 %
#197
b11011 $
#200
r304 .
r913 -
r545 ,
b1101000001000110011110110100101 %
#203
b11100 $
#206
r718 .
r897 -
r623 ,
b11001011001000010010110101000000 %
#209
b11101 $
#212
1'
r752 .
r466 -
r12 ,
b11100100010101111110101000110111 %
#215
b11110 $
0'
b10 !
#218
r106 .
r573 -
r583 ,
b10001001000011001101100010111010 %
#221
b11111 $
#224
r201 .
r189 -
r414 ,
b10011100110110011110010010111001 %
#227
b100000 $
#230
1'
r381 .
r827 -
r87 ,
b11000010110110010010110011100100 %
#233
b100001 $
0'
b11 !
#236
1(
r201 .
r91 -
r616 ,
b10100100100010110100100110101011 %
#239
b100010 $
0(
#242
1'
r840 .
r458 -
r15 ,
b10101100000101010110000000111110 %
#245
b100011 $
0'
b100 !
#248
r148 .
r486 -
r710 ,
b1001110001011111111000110001101 %
#251
b100100 $
#254
r363 .
r270 -
r474 ,
b10111001100101100001010101001000 %
#257
b100101 $
#260
1(
r339 .
r31 -
r243 ,
b1011001110100101001000011011111 %
#263
b100110 $
0(
#266
1'
r159 .
r364 -
r39 ,
b11111011111110001111101010000010 %
#269
b100111 $
0'
b101 !
#272
r962 .
r550 -
r923 ,
b10101101001010001101100000100001 %
#275
b101000 $
#278
r898 .
r261 -
r369 ,
b1101101010100110110101001101100 %
#281
b101001 $
#284
r927 .
r445 -
r717 ,
b1101111101111101001001111010011 %
#287
b101010 $
#290
r920 .
r604 -
r305 ,
b1101000011101000000101110000110 %
#293
b101011 $
#296
r662 .
r323 -
r866 ,
b10000111011011111100110001110101 %
#299
b101100 $
#302
r181 .
r298 -
r764 ,
b1111110110111110111000001010000 %
#305
b101101 $
#308
r654 .
r198 -
r835 ,
b10100111011110011110011010000111 %
#311
b101110 $
#314
r342 .
r666 -
r639 ,
b11011011011011111011011101001010 %
#317
b101111 $
#320
r280 .
r313 -
r936 ,
b1011100001010111100001010001001 %
#323
b110000 $
#326
r468 .
r499 -
r852 ,
b10001111110010101011110100 %
#329
b110001 $
#332
1(
r189 .
r99 -
r393 ,
b100110111111001101110011111011 %
#335
b110010 $
0(
#338
r702 .
r405 -
r377 ,
b111011010001011110000111001110 %
#341
b110011 $
#344
r501 .
r334 -
r978 ,
b11001010100100110110111001011101 %
#347
b110100 $
#350
1'
r855 .
r940 -
r38 ,
b11111011110100100101111001011000 %
#353
b110101 $
0'
b110 !
#356
r104 .
r196 -
r249 ,
b11000100000000011000101100101111 %
#359
b110110 $
#362
1(
1'
r463 .
r5 -
r24 ,
b1100011110001010010111100010010 %
#365
b110111 $
0(
0'
b10 &
b111 !
#368
1(
r204 .
r24 -
r262 ,
b10001110010000010100001111110001 %
#371
b111000 $
0(
#374
r396 .
r489 -
r477 ,
b1110001101111000111001111100 %
#377
b111001 $
#380
1'
r317 .
r682 -
r30 ,
b11110101101111100010100100011 %
#383
b111010 $
0'
b1000 !
#386
r771 .
r944 -
r326 ,
b111001111101010000001100010110 %
#389
b111011 $
#392
r930 .
r806 -
r658 ,
b11111101010001110111011101000101 %
#395
b111100 $
#398
r697 .
r106 -
r149 ,
b1011100111011111111111101100000 %
#401
b111101 $
#404
r576 .
r982 -
r727 ,
b11100000001110010001111011010111 %
#407
b111110 $
#410
1(
r709 .
r14 -
r326 ,
b10111110100110011000000111011010 %
#413
b111111 $
0(
#416
r616 .
r518 -
r388 ,
b10111100000000111111110001011001 %
#419
b1000000 $
#422
r567 .
r107 -
r302 ,
b1100111110000111011010100000100 %
#425
b1000001 $
#428
1(
r161 .
r58 -
r769 ,
b110000101111001110110001001011 %
#431
b1000010 $
0(
#434
r158 .
r481 -
r679 ,
b11000011011101111000111101011110 %
#437
b1000011 $
#440
1(
r965 .
r69 -
r184 ,
b11010101101001000011100101101 %
#443
b1000100 $
0(
#446
r805 .
r401 -
r233 ,
b1100010111001010111001101101000 %
#449
b1000101 $
#452
r363 .
r611 -
r184 ,
b111001100011000100000101111111 %
#455
b1000110 $
#458
r822 .
r554 -
r828 ,
b10100111010110001100111110100010 %
#461
b1000111 $
#464
r553 .
r417 -
r280 ,
b1010000110010101000101111000001 %
#467
b1001000 $
#470
1)
1(
r79 .
r54 -
r430 ,
b1001111110101101011111010001100 %
#473
b1001001 $
0)
0(
b11 &
#476
r741 .
r890 -
r754 ,
b1000110101101011111001001110011 %
#479
b1001010 $
#482
1)
r41 .
r408 -
r862 ,
b111100110011111010011010100110 %
#485
b1001011 $
0)
#488
1(
r931 .
r90 -
r160 ,
b10001001111111110011111000010101 %
#491
b1001100 $
0(
#494
r958 .
r215 -
r419 ,
b11011011000010111101101001110000 %
#497
b1001101 $
#500
r529 .
r580 -
r794 ,
b11011100100000101001001100100111 %
#503
b1001110 $
#506
r719 .
r412 -
r770 ,
b10111111101110110011100001101010 %
#509
b1001111 $
#512
1(
r170 .
r42 -
r806 ,
b1111001001001111001001000101001 %
#515
b1010000 $
0(
#518
r860 .
r973 -
r530 ,
b11000010010011111100101100010100 %
#521
b1010001 $
#524
r985 .
r570 -
r964 ,
b11010100101010000111011110011011 %
#527
b1010010 $
#530
r891 .
r526 -
r313 ,
b1111101100010110110100011101110 %
#533
b1010011 $
#536
r265 .
r487 -
r515 ,
b11100100110010000011101111111101 %
#539
b1010100 $
#542
r847 .
r949 -
r614 ,
b1000111111010000101010001111000 %
#545
b1010101 $
#548
r814 .
r744 -
r979 ,
b1010111001111111011001111001111 %
#551
b1010110 $
#554
r544 .
r458 -
r707 ,
b10010100010001001101110000110010 %
#557
b1010111 $
#560
r482 .
r123 -
r893 ,
b1100001011010011010111110010001 %
#563
b1011000 $
#566
r996 .
r181 -
r254 ,
b11110110011110011111101010011100 %
#569
b1011001 $
#572
1)
1'
r22 .
r497 -
r64 ,
b1000011011101100001101111000011 %
#575
b1011010 $
0)
0'
b100 &
b1001 !
#578
r384 .
r299 -
r105 ,
b11101100010001001111011000110110 %
#581
b1011011 $
#584
r707 .
r862 -
r339 ,
b101101101011000010000011100101 %
#587
b1011100 $
#590
1)
r35 .
r932 -
r306 ,
b10111001101011000000000110000000 %
#593
b1011101 $
0)
#596
1)
r72 .
r554 -
r504 ,
b1011100000000110100001101110111 %
#599
b1011110 $
0)
#602
r353 .
r805 -
r857 ,
b1010000110001011101101011111010 %
#605
b1011111 $
#608
r968 .
r593 -
r499 ,
b11100100000110111000001111111001 %
#611
b1100000 $
#614
1(
r471 .
r1 -
r567 ,
b1111100011000110110100100100 %
#617
b1100001 $
0(
#620
r430 .
r320 -
r508 ,
b1001011010111000111111011101011 %
#623
b1100010 $
#626
r246 .
r442 -
r420 ,
b1001011001000100110111001111110 %
#629
b1100011 $
#632
r597 .
r317 -
r233 ,
b1110110110000111000110011001101 %
#635
b1 #
r4 +
r9 *
b1100100 $
#645
b0 $
b0 &
b0 !
#648
1(
r645 .
r29 -
r739 ,
b11010110101101000000000110001000 %
#651
b1 $
0(
#654
r511 .
r444 -
r295 ,
b1010011101010001110001000011111 %
#657
b10 $
#660
1(
r713 .
r25 -
r807 ,
b100100110110100101010011000010 %
#663
b11 $
0(
#666
1'
r897 .
r985 -
r27 ,
b10101000100000111010111101100001 %
#669
b100 $
0'
b1 !
#672
1)
r74 .
r322 -
r273 ,
b11111101001010100100001010101100 %
#675
b101 $
0)
#678
r124 .
r395 -
r885 ,
b111110011101010100000100010011 %
#681
b110 $
#684
1'
r848 .
r390 -
r66 ,
b110100010101011111000111000110 %
#687
b111 $
0'
b10 !
#690
1)
1'
r16 .
r102 -
r39 ,
b11111000001000110001111110110101 %
#693
b1000 $
0)
0'
b1 &
b11 !
#696
r392 .
r992 -
r976 ,
b10100000010010111010010010000 %
#699
b1001 $
#702
r560 .
r397 -
r694 ,
b11100000001010000010111111000111 %
#705
b1010 $
#708
r136 .
r673 -
r140 ,
b1011000011010100110100110001010 %
#711
b1011 $
#714
r642 .
r546 -
r756 ,
b10110001001001001101000111001001 %
#717
b1100 $
#720
r375 .
r257 -
r893 ,
b10001011111000101001101100110100 %
#723
b1101 $
#726
r574 .
r577 -
r627 ,
b1000011001101100000001000111011 %
#729
b1110 $
#732
r885 .
r625 -
r477 ,
b1000110100111011010000000001110 %
#735
b1111 $
#738
r708 .
r991 -
r874 ,
b10010110010110110111100110011101 %
#741
b10000 $
#744
r667 .
r817 -
r124 ,
b11101111000010111101010011000 %
#747
b10001 $
#750
1(
r678 .
r7 -
r566 ,
b1001111000101001100110001101111 %
#753
b10010 $
0(
#756
r848 .
r661 -
r876 ,
b10000001010100011100101010010 %
#759
b10011 $
#762
r156 .
r834 -
r944 ,
b1011010001111011000101100110001 %
#765
b10100 $
#768
r219 .
r669 -
r317 ,
b10100101101100001001011010111100 %
#771
b10101 $
#774
1(
r709 .
r94 -
r321 ,
b1111110111100000110001001100011 %
#777
b10110 $
0(
#780
r163 .
r703 -
r123 ,
b1110000111001100101010110 %
#783
b10111 $
#786
r913 .
r109 -
r227 ,
b11011000111110010011101010000101 %
#789
b11000 $
#792
r272 .
r877 -
r876 ,
b1110000000111010011001110100000 %
#795
b11001 $
#798
1)
r56 .
r354 -
r741 ,
b11111100000111100101100000010111 %
#801
b11010 $
0)
#804
1(
r572 .
r34 -
r677 ,
b11000010000110011110010000011010 %
#807
b11011 $
0(
#810
r936 .
r724 -
r862 ,
b11001000010010000111101110011001 %
#813
b11100 $
#816
r236 .
r154 -
r879 ,
b11000010011110110101010101000100 %
#819
b11101 $
#822
r928 .
r500 -
r434 ,
b110000010100100000000110001011 %
#825
b11110 $
#828
r662 .
r915 -
r298 ,
b1010011000111011111110110011110 %
#831
b11111 $
#834
r362 .
r314 -
r821 ,
b1010001000001010000001001101101 %
#837
b100000 $
#840
r429 .
r836 -
r241 ,
b11110110010011011111110101000 %
#843
b100001 $
#846
1(
r415 .
r60 -
r195 ,
b10100011100100000111001010111111 %
#849
b100010 $
0(
#852
r628 .
r137 -
r142 ,
b1011010000001011000100111100010 %
#855
b100011 $
#858
1)
r36 .
r500 -
r360 ,
b11000110011111000100001100000001 %
#861
b100100 $
0)
#864
1)
1'
r1 .
r162 -
r39 ,
b10001000100101011111011011001100 %
#867
b100101 $
0)
0'
b10 &
b100 !
#870
1'
r307 .
r331 -
r32 ,
b10111001111001000111111110110011 %
#873
b100110 $
0'
b101 !
#876
r212 .
r779 -
r644 ,
b11010010000011101110110011100110 %
#879
b100111 $
#882
r599 .
r641 -
r905 ,
b1101111100000110111000101010101 %
#885
b101000 $
#888
1)
r53 .
r839 -
r396 ,
b11001110101000000011111010110000 %
#891
b101001 $
0)
#894
r953 .
r986 -
r568 ,
b10100100110100101011110001100111 %
#897
b101010 $
#900
r188 .
r984 -
r361 ,
b1110000001010100101010101010 %
#903
b101011 $
#906
1)
r58 .
r595 -
r851 ,
b10101010010111000000101101001 %
#909
b101100 $
0)
#912
1(
r930 .
r45 -
r856 ,
b10011101001111111001101101010100 %
#915
b101101 $
0(
#918
r841 .
r171 -
r668 ,
b10011100100011010111110011011011 %
#921
b101110 $
#924
1)
1(
r65 .
r10 -
r202 ,
b10101100100001001000011100101110 %
#927
b101111 $
0)
0(
b11 &
#930
r815 .
r598 -
r120 ,
b11001011111101010010011100111101 %
#933
b110000 $
#936
r227 .
r158 -
r475 ,
b11011101100001011101000010111000 %
#939
b110001 $
#942
r473 .
r191 -
r600 ,
b110100111010001101010100001111 %
#945
b110010 $
#948
r309 .
r689 -
r884 ,
b11100010111111010100011001110010 %
#951
b110011 $
#954
r225 .
r520 -
r911 ,
b101000111001001101011011010001 %
#957
b110100 $
#960
r330 .
r207 -
r785 ,
b10100101001000110110001011011100 %
#963
b110101 $
#966
r292 .
r603 -
r552 ,
b1100010000011101001100100000011 %
#969
b110110 $
#972
1(
r854 .
r71 -
r336 ,
b1000011011110001110110001110110 %
#975
b110111 $
0(
#978
r917 .
r791 -
r544 ,
b11011010110101101100010000100101 %
#981
b111000 $
#984
1)
r62 .
r223 -
r732 ,
b10111011000010111001010111000000 %
#987
b111001 $
0)
#990
r681 .
r411 -
r521 ,
b10000000111100100101110010110111 %
#993
b111010 $
#996
1)
1(
r42 .
r96 -
r603 ,
b11100001000111011001110100111010 %
#999
b111011 $
0)
0(
b100 &
#1002
r743 .
r136 -
r669 ,
b1010111101100101110001100111001 %
#1005
b111100 $
#1008
r225 .
r511 -
r998 ,
b1110100110110000110110101100100 %
#1011
b111101 $
#1014
r439 .
r934 -
r320 ,
b1110111100001010111010000101011 %
#1017
b111110 $
#1020
r918 .
r357 -
r249 ,
b1110111011100100011110010111110 %
#1023
b111111 $
#1026
r416 .
r533 -
r632 ,
b10100001000001110100000001101 %
#1029
b1000000 $
#1032
r529 .
r569 -
r740 ,
b1110000111011101010110111001000 %
#1035
b1000001 $
#1038
r441 .
r270 -
r623 ,
b11000000101010101111001101011111 %
#1041
b1000010 $
#1044
r264 .
r992 -
r341 ,
b11111000011000100110111100000010 %
#1047
b1000011 $
#1050
r513 .
r319 -
r850 ,
b1111000110111000100011010100001 %
#1053
b1000100 $
#1056
r946 .
r926 -
r725 ,
b1110001011000011101101011101100 %
#1059
b1000101 $
#1062
r863 .
r209 -
r572 ,
b11110111111010111010111001010011 %
#1065
b1000110 $
#1068
r466 .
r159 -
r875 ,
b10100101000000101001100000000110 %
#1071
b1000111 $
#1074
r379 .
r243 -
r593 ,
b10001001110010000011001011110101 %
#1077
b1001000 $
#1080
r159 .
r481 -
r109 ,
b1011011100110000011100011010000 %
#1083
b1001001 $
#1086
1(
r481 .
r18 -
r137 ,
b111000111010100011100100000111 %
#1089
b1001010 $
0(
#1092
r986 .
r396 -
r586 ,
b10010101000100111101101111001010 %
#1095
b1001011 $
#1098
r749 .
r129 -
r773 ,
b11110010110000111010000100001001 %
#1101
b1001100 $
#1104
r465 .
r849 -
r757 ,
b100000101011101100101101110100 %
#1107
b1001101 $
#1110
1)
r29 .
r443 -
r567 ,
b1100110100101101110011101111011 %
#1113
b1001110 $
0)
#1116
r442 .
r294 -
r744 ,
b1010001010010000001111001001110 %
#1119
b1001111 $
#1122
r500 .
r946 -
r229 ,
b11101110001111010100010011011101 %
#1125
b1010000 $
#1128
r605 .
r587 -
r672 ,
b10010100111010101011011011000 %
#1131
b1010001 $
#1134
r524 .
r462 -
r640 ,
b101110001000111100110110101111 %
#1137
b1010010 $
#1140
r248 .
r449 -
r379 ,
b11100100010001100000001110010010 %
#1143
b1010011 $
#1146
r675 .
r886 -
r219 ,
b111001100001111001001001110001 %
#1149
b1010100 $
#1152
r524 .
r406 -
r292 ,
b11101010000110100101111011111100 %
#1155
b1010101 $
#1158
r179 .
r953 -
r409 ,
b1011001101110001011111110100011 %
#1161
b1010110 $
#1164
r540 .
r285 -
r484 ,
b10000110011011001110111110010110 %
#1167
b1010111 $
#1170
r317 .
r602 -
r409 ,
b1010111011001011110111000101 %
#1173
b1011000 $
#1176
r130 .
r310 -
r365 ,
b10000001001111110010011111100000 %
#1179
b1011001 $
#1182
r973 .
r512 -
r296 ,
b11000110111001110101000101010111 %
#1185
b1011010 $
#1188
r352 .
r120 -
r799 ,
b11001000010110010000011001011010 %
#1191
b1011011 $
#1194
1)
r11 .
r300 -
r877 ,
b10111101100000101011101011011001 %
#1197
b1011100 $
0)
#1200
r861 .
r925 -
r152 ,
b110111010111011010110000100 %
#1203
b1011101 $
#1206
r649 .
r997 -
r768 ,
b10100110111101101011011001011 %
#1209
b1011110 $
#1212
1)
r0 .
r208 -
r708 ,
b11100000001001110010101111011110 %
#1215
b1011111 $
0)
#1218
r437 .
r529 -
r496 ,
b10100110101111110011110110101101 %
#1221
b1100000 $
#1224
r677 .
r405 -
r621 ,
b101110111010101100101111101000 %
#1227
b1100001 $
#1230
r452 .
r218 -
r332 ,
b11011110011000000110001111111111 %
#1233
b1100010 $
#1236
1'
r642 .
r886 -
r16 ,
b1111101011110010000010000100010 %
#1239
b1100011 $
0'
b110 !
#1242
r851 .
r255 -
r398 ,
b1001001110010111011101001000001 %
#1245
b10 #
r8 +
r15 *
b1100100 $
#1255
b0 $
b0 &
b0 !
#1258
r925 .
r647 -
r701 ,
b10100010110101011110111100001100 %
#1261
b1 $
#1264
r982 .
r729 -
r851 ,
b10011011100101100110011110011 %
#1267
b10 $
#1270
r176 .
r702 -
r672 ,
b1001000001110001111001100100110 %
#1273
b11 $
#1276
1)
1'
r81 .
r660 -
r98 ,
b11011100100110010110010010010101 %
#1279
b100 $
0)
0'
b1 &
b1 !
#1282
r655 .
r240 -
r939 ,
b10110111101110010110001011110000 %
#1285
b101 $
#1288
r365 .
r573 -
r912 ,
b11000110110101101010010110100111 %
#1291
b110 $
#1294
r644 .
r532 -
r899 ,
b11101110000111100001110011101010 %
#1297
b111 $
#1300
r597 .
r297 -
r508 ,
b11010010101101010011000010101001 %
#1303
b1000 $
#1306
1(
r176 .
r35 -
r662 ,
b101100011110000010101110010100 %
#1309
b1001 $
0(
#1312
1)
1'
r54 .
r772 -
r84 ,
b10000011001110100100001000011011 %
#1315
b1010 $
0)
0'
b10 &
b10 !
#1318
r117 .
r456 -
r810 ,
b1100010111100000110010101101110 %
#1321
b1011 $
#1324
r707 .
r898 -
r938 ,
b11100001110110111101001001111101 %
#1327
b1100 $
#1330
r513 .
r636 -
r570 ,
b1110100111100000000110011111000 %
#1333
b1101 $
#1336
r160 .
r323 -
r411 ,
b11111100001011011011011001001111 %
#1339
b1110 $
#1342
r119 .
r977 -
r378 ,
b10110111100011000111000010110010 %
#1345
b1111 $
#1348
r664 .
r285 -
r283 ,
b10110100010011011011111000010001 %
#1351
b10000 $
#1354
r731 .
r727 -
r997 ,
b11010101110111011000101100011100 %
#1357
b10001 $
#1360
r933 .
r448 -
r923 ,
b10101110110101101101011001000011 %
#1363
b10010 $
#1366
r775 .
r204 -
r706 ,
b10101011101001111010001010110110 %
#1369
b10011 $
#1372
1'
r993 .
r682 -
r62 ,
b111100111000110010011101100101 %
#1375
b10100 $
0'
b11 !
#1378
1)
r18 .
r190 -
r596 ,
b1010101011111111110101000000000 %
#1381
b10101 $
0)
#1384
r124 .
r534 -
r312 ,
b11000110011001010011010111110111 %
#1387
b10110 $
#1390
r612 .
r651 -
r785 ,
b11011110010101000001111101111010 %
#1393
b10111 $
#1396
1)
r17 .
r815 -
r636 ,
b1100000111000000000001001111001 %
#1399
b11000 $
0)
#1402
r209 .
r525 -
r139 ,
b1000100111111010010110110100100 %
#1405
b11001 $
#1408
r456 .
r543 -
r743 ,
b1011000010001100010100101101011 %
#1411
b11010 $
#1414
r842 .
r382 -
r795 ,
b1000001010001001100101011111110 %
#1417
b11011 $
#1420
r247 .
r889 -
r498 ,
b1101011100010000000001101001101 %
#1423
b11100 $
#1426
r133 .
r945 -
r406 ,
b11100110100001100001101000001000 %
#1429
b11101 $
#1432
1)
r24 .
r948 -
r541 ,
b11001100000110001100010010011111 %
#1435
b11110 $
0)
#1438
r869 .
r202 -
r572 ,
b110010110100010100100101000010 %
#1441
b11111 $
#1444
1(
1'
r238 .
r43 -
r71 ,
b1111111011100101001110111100001 %
#1447
b100000 $
0(
0'
b11 &
b100 !
#1450
r688 .
r734 -
r517 ,
b1110100001110100011001100101100 %
#1453
b100001 $
#1456
r966 .
r728 -
r436 ,
b11011000011101101110010011 %
#1459
b100010 $
#1462
1)
r61 .
r664 -
r114 ,
b1100010101110011111111001000110 %
#1465
b100011 $
0)
#1468
r555 .
r902 -
r614 ,
b11111001100111110000011000110101 %
#1471
b100100 $
#1474
r751 .
r875 -
r131 ,
b10001011110010111011110100010000 %
#1477
b100101 $
#1480
r506 .
r828 -
r839 ,
b10010101000000000000001001000111 %
#1483
b100110 $
#1486
1(
r307 .
r84 -
r926 ,
b1100101101011000000111000001010 %
#1489
b100111 $
0(
#1492
1(
r988 .
r28 -
r579 ,
b1111010010010000011000001001001 %
#1495
b101000 $
0(
#1498
1)
r93 .
r513 -
r245 ,
b11000010111000111011101110110100 %
#1501
b101001 $
0)
#1504
r736 .
r961 -
r761 ,
b110000010111111000110010111011 %
#1507
b101010 $
#1510
1'
r143 .
r332 -
r30 ,
b10011011100001010101110010001110 %
#1513
b101011 $
0'
b101 !
#1516
1(
r606 .
r51 -
r432 ,
b111011110001101000000011101 %
#1519
b101100 $
0(
#1522
1)
1'
r24 .
r568 -
r12 ,
b11101000010001011111001100011000 %
#1525
b101101 $
0)
0'
b100 &
b110 !
#1528
r760 .
r363 -
r912 ,
b11111100011011101000111011101111 %
#1531
b101110 $
#1534
1'
r992 .
r435 -
r25 ,
b11001100010110001000110111010010 %
#1537
b101111 $
0'
b111 !
#1540
r210 .
r823 -
r615 ,
b1111101010111110101100110110001 %
#1543
b110000 $
#1546
r427 .
r968 -
r957 ,
b110101101101001110011100111100 %
#1549
b110001 $
#1552
r924 .
r306 -
r809 ,
b10000110010100001101110011100011 %
#1555
b110010 $
#1558
r680 .
r573 -
r733 ,
b10100000001100010000010111010110 %
#1561
b110011 $
#1564
1(
r992 .
r4 -
r940 ,
b1000000011000100000000100000101 %
#1567
b110100 $
0(
#1570
r421 .
r123 -
r563 ,
b1110110100101011101110000100000 %
#1573
b110101 $
#1576
r751 .
r496 -
r668 ,
b10010011110101000000101010010111 %
#1579
b110110 $
#1582
1'
r739 .
r563 -
r7 ,
b11010101100101101110100010011010 %
#1585
b110111 $
0'
b1000 !
#1588
1'
r545 .
r554 -
r16 ,
b11100100111100101011101000011001 %
#1591
b111000 $
0'
b1001 !
#1594
r166 .
r562 -
r999 ,
b11100111010101001101010111000100 %
#1597
b111001 $
#1600
r195 .
r980 -
r399 ,
b11101101101000110110110000001011 %
#1603
b111010 $
#1606
r789 .
r693 -
r128 ,
b11011010110100110001101000011110 %
#1609
b111011 $
#1612
1'
r778 .
r128 -
r18 ,
b1000001001000110011100011101101 %
#1615
b111100 $
0'
b1010 !
#1618
1(
r979 .
r96 -
r232 ,
b1010001100010001001100000101000 %
#1621
b111101 $
0(
#1624
r202 .
r157 -
r548 ,
b11110101001111000001010100111111 %
#1627
b111110 $
#1630
r443 .
r108 -
r926 ,
b101101111100110011111001100010 %
#1633
b111111 $
#1636
r767 .
r296 -
r800 ,
b11011111110001111000110000001 %
#1639
b1000000 $
#1642
r337 .
r853 -
r432 ,
b10101000110101101010011101001100 %
#1645
b1000001 $
#1648
r653 .
r235 -
r611 ,
b10011010101000001101101000110011 %
#1651
b1000010 $
#1654
1(
r599 .
r59 -
r872 ,
b10100111100011011011100101100110 %
#1657
b1000011 $
0(
#1660
1'
r269 .
r808 -
r0 ,
b1101110100000010001011111010101 %
#1663
b1000100 $
0'
b1011 !
#1666
1(
r961 .
r89 -
r838 ,
b101100100101110100011100110000 %
#1669
b1000101 $
0(
#1672
r987 .
r823 -
r421 ,
b101110011100100111011100111 %
#1675
b1000110 $
#1678
r304 .
r715 -
r646 ,
b10010100010001011010111100101010 %
#1681
b1000111 $
#1684
r877 .
r848 -
r737 ,
b11101010101001001001111111101001 %
#1687
b1001000 $
#1690
1)
r76 .
r204 -
r803 ,
b11010010001110010111101111010100 %
#1693
b1001001 $
0)
#1696
r295 .
r142 -
r398 ,
b111111011101100011101011011 %
#1699
b1001010 $
#1702
1(
r234 .
r88 -
r915 ,
b1000001000011110000001110101110 %
#1705
b1001011 $
0(
#1708
r503 .
r549 -
r999 ,
b111011101111000011110110111101 %
#1711
b1001100 $
#1714
1(
1'
r800 .
r69 -
r29 ,
b1111100011001110000100100111000 %
#1717
b1001101 $
0(
0'
b101 &
b1100 !
#1720
1)
r56 .
r740 -
r134 ,
b101000010011100101011110001111 %
#1723
b1001110 $
0)
#1726
r844 .
r604 -
r529 ,
b1011110001100100101101011110010 %
#1729
b1001111 $
#1732
r657 .
r910 -
r319 ,
b110100111001000110010101010001 %
#1735
b1010000 $
#1738
r437 .
r798 -
r562 ,
b1000010111010000111001101011100 %
#1741
b1010001 $
#1744
r826 .
r456 -
r330 ,
b11100001000011101101001110000011 %
#1747
b1010010 $
#1750
1)
1(
r42 .
r91 -
r890 ,
b1011101000100010001100011110110 %
#1753
b1010011 $
0)
0(
b110 &
#1756
r618 .
r179 -
r955 ,
b11100001000100010100101010100101 %
#1759
b1010100 $
#1762
1(
1'
r254 .
r1 -
r68 ,
b11001111010010001111111001000000 %
#1765
b1010101 $
0(
0'
b111 &
b1101 !
#1768
1)
r39 .
r403 -
r793 ,
b1011111100110111100111100110111 %
#1771
b1010110 $
0)
#1774
r169 .
r296 -
r969 ,
b10101100101010010110000110111010 %
#1777
b1010111 $
#1780
r713 .
r788 -
r302 ,
b101000111000101110000110111001 %
#1783
b1011000 $
#1786
1'
r460 .
r719 -
r81 ,
b10010010001110101010110111100100 %
#1789
b1011001 $
0'
b1110 !
#1792
r913 .
r379 -
r363 ,
b11011100110111101001111010101011 %
#1795
b1011010 $
#1798
r665 .
r599 -
r821 ,
b1111000110110100001100100111110 %
#1801
b1011011 $
#1804
r700 .
r111 -
r622 ,
b10000010001110001101111010001101 %
#1807
b1011100 $
#1810
r659 .
r916 -
r138 ,
b1010101101110100100011001001000 %
#1813
b1011101 $
#1816
r962 .
r967 -
r412 ,
b1100001001100100101010111011111 %
#1819
b1011110 $
#1822
r480 .
r410 -
r443 ,
b1010000011001101110001110000010 %
#1825
b1011111 $
#1828
1'
r595 .
r508 -
r38 ,
b11011101100001101011010100100001 %
#1831
b1100000 $
0'
b1111 !
#1834
r903 .
r346 -
r954 ,
b1101111111100110100101101101100 %
#1837
b1100001 $
#1840
r688 .
r927 -
r608 ,
b10001000000101111100100011010011 %
#1843
b1100010 $
#1846
r931 .
r517 -
r210 ,
b11010101101111000010010010000110 %
#1849
b1100011 $
#1852
r969 .
r476 -
r468 ,
b11000100111001111001100101110101 %
#1855
b11 #
r15 +
r30 *
b1100100 $
#1865
b0 $
b0 &
b0 !
#1868
r293 .
r948 -
r251 ,
b10011010111001000000000101010000 %
#1871
b1 $
#1874
r343 .
r645 -
r763 ,
b10010111101010011000101110000111 %
#1877
b10 $
#1880
r644 .
r693 -
r476 ,
b1011110011100110000000001001010 %
#1883
b11 $
#1886
1(
1'
r409 .
r63 -
r2 ,
b1100000111100100111111110001001 %
#1889
b100 $
0(
0'
b1 &
b1 !
#1892
1(
r433 .
r73 -
r820 ,
b110100110000010110101111110100 %
#1895
b101 $
0(
#1898
r495 .
r637 -
r498 ,
b11111111110011111111000111111011 %
#1901
b110 $
#1904
r483 .
r720 -
r661 ,
b100101100101010101101011001110 %
#1907
b111 $
#1910
1(
r846 .
r79 -
r882 ,
b11010111010011100001101101011101 %
#1913
b1000 $
0(
#1916
r714 .
r320 -
r752 ,
b1101101000110110100111101011000 %
#1919
b1001 $
